{
  "afar": "aar",
  "abkhazian": "abk",
  "achinese": "ace",
  "acoli": "ach",
  "adangme": "ada",
  "adyghe": "ady",
  "adygei": "ady",
  "afro-asiatic languages": "afa",
  "afrihili": "afh",
  "afrikaans": "afr",
  "ainu": "ain",
  "akan": "aka",
  "akkadian": "akk",
  "albanian": "alb",
  "aleut": "ale",
  "algonquian languages": "alg",
  "southern altai": "alt",
  "amharic": "amh",
  "english, old (ca.450-1100)": "ang",
  "angika": "anp",
  "apache languages": "apa",
  "arabic": "ara",
  "official aramaic (700-300 bce)": "arc",
  "imperial aramaic (700-300 bce)": "arc",
  "aragonese": "arg",
  "armenian": "arm",
  "mapudungun": "arn",
  "mapuche": "arn",
  "arapaho": "arp",
  "artificial languages": "art",
  "arawak": "arw",
  "assamese": "asm",
  "asturian": "ast",
  "bable": "ast",
  "leonese": "ast",
  "asturleonese": "ast",
  "athapascan languages": "ath",
  "australian languages": "aus",
  "avaric": "ava",
  "avestan": "ave",
  "awadhi": "awa",
  "aymara": "aym",
  "azerbaijani": "aze",
  "banda languages": "bad",
  "bamileke languages": "bai",
  "bashkir": "bak",
  "baluchi": "bal",
  "bambara": "bam",
  "balinese": "ban",
  "basque": "baq",
  "basa": "bas",
  "baltic languages": "bat",
  "beja": "bej",
  "bedawiyet": "bej",
  "belarusian": "bel",
  "bemba": "bem",
  "bengali": "ben",
  "berber languages": "ber",
  "bhojpuri": "bho",
  "bihari languages": "bih",
  "bikol": "bik",
  "bini": "bin",
  "edo": "bin",
  "bislama": "bis",
  "siksika": "bla",
  "bantu (other)": "bnt",
  "bosnian": "bos",
  "braj": "bra",
  "breton": "bre",
  "batak languages": "btk",
  "buriat": "bua",
  "buginese": "bug",
  "bulgarian": "bul",
  "burmese": "bur",
  "blin": "byn",
  "bilin": "byn",
  "caddo": "cad",
  "central american indian languages": "cai",
  "galibi carib": "car",
  "catalan": "cat",
  "valencian": "cat",
  "caucasian languages": "cau",
  "cebuano": "ceb",
  "celtic languages": "cel",
  "chamorro": "cha",
  "chibcha": "chb",
  "chechen": "che",
  "chagatai": "chg",
  "chinese": "chi",
  "chuukese": "chk",
  "mari": "chm",
  "chinook jargon": "chn",
  "choctaw": "cho",
  "chipewyan": "chp",
  "dene suline": "chp",
  "cherokee": "chr",
  "church slavic": "chu",
  "old slavonic": "chu",
  "church slavonic": "chu",
  "old bulgarian": "chu",
  "old church slavonic": "chu",
  "chuvash": "chv",
  "cheyenne": "chy",
  "chamic languages": "cmc",
  "coptic": "cop",
  "cornish": "cor",
  "corsican": "cos",
  "creoles and pidgins, english-based": "cpe",
  "creoles and pidgins, french-based": "cpf",
  "creoles and pidgins, portuguese-based": "cpp",
  "cree": "cre",
  "crimean tatar": "crh",
  "crimean turkish": "crh",
  "creoles and pidgins": "crp",
  "kashubian": "csb",
  "cushitic languages": "cus",
  "czech": "cze",
  "dakota": "dak",
  "danish": "dan",
  "dargwa": "dar",
  "land dayak languages": "day",
  "delaware": "del",
  "slave (athapascan)": "den",
  "dogrib": "dgr",
  "dinka": "din",
  "divehi": "div",
  "dhivehi": "div",
  "maldivian": "div",
  "dogri": "doi",
  "dravidian languages": "dra",
  "lower sorbian": "dsb",
  "duala": "dua",
  "dutch, middle (ca.1050-1350)": "dum",
  "dutch": "dut",
  "flemish": "dut",
  "dyula": "dyu",
  "dzongkha": "dzo",
  "efik": "efi",
  "egyptian (ancient)": "egy",
  "ekajuk": "eka",
  "elamite": "elx",
  "english": "eng",
  "english, middle (1100-1500)": "enm",
  "esperanto": "epo",
  "estonian": "est",
  "ewe": "ewe",
  "ewondo": "ewo",
  "fang": "fan",
  "faroese": "fao",
  "fanti": "fat",
  "fijian": "fij",
  "filipino": "fil",
  "pilipino": "fil",
  "finnish": "fin",
  "finno-ugrian languages": "fiu",
  "fon": "fon",
  "french": "fre",
  "french, middle (ca.1400-1600)": "frm",
  "french, old (842-ca.1400)": "fro",
  "northern frisian": "frr",
  "eastern frisian": "frs",
  "western frisian": "fry",
  "fulah": "ful",
  "friulian": "fur",
  "ga": "gaa",
  "gayo": "gay",
  "gbaya": "gba",
  "germanic languages": "gem",
  "georgian": "geo",
  "german": "ger",
  "geez": "gez",
  "gilbertese": "gil",
  "gaelic": "gla",
  "scottish gaelic": "gla",
  "irish": "gle",
  "galician": "glg",
  "manx": "glv",
  "german, middle high (ca.1050-1500)": "gmh",
  "german, old high (ca.750-1050)": "goh",
  "gondi": "gon",
  "gorontalo": "gor",
  "gothic": "got",
  "grebo": "grb",
  "greek, ancient (to 1453)": "grc",
  "greek, modern (1453-)": "gre",
  "guarani": "grn",
  "swiss german": "gsw",
  "alemannic": "gsw",
  "alsatian": "gsw",
  "gujarati": "guj",
  "gwich'in": "gwi",
  "haida": "hai",
  "haitian": "hat",
  "haitian creole": "hat",
  "hausa": "hau",
  "hawaiian": "haw",
  "hebrew": "heb",
  "herero": "her",
  "hiligaynon": "hil",
  "himachali languages": "him",
  "western pahari languages": "him",
  "hindi": "hin",
  "hittite": "hit",
  "hmong": "hmn",
  "mong": "hmn",
  "hiri motu": "hmo",
  "croatian": "hrv",
  "upper sorbian": "hsb",
  "hungarian": "hun",
  "hupa": "hup",
  "iban": "iba",
  "igbo": "ibo",
  "icelandic": "ice",
  "ido": "ido",
  "sichuan yi": "iii",
  "nuosu": "iii",
  "ijo languages": "ijo",
  "inuktitut": "iku",
  "interlingue": "ile",
  "occidental": "ile",
  "iloko": "ilo",
  "interlingua (international auxiliary language association)": "ina",
  "indic languages": "inc",
  "indonesian": "ind",
  "indo-european languages": "ine",
  "ingush": "inh",
  "inupiaq": "ipk",
  "iranian languages": "ira",
  "iroquoian languages": "iro",
  "italian": "ita",
  "javanese": "jav",
  "lojban": "jbo",
  "japanese": "jpn",
  "judeo-persian": "jpr",
  "judeo-arabic": "jrb",
  "kara-kalpak": "kaa",
  "kabyle": "kab",
  "kachin": "kac",
  "jingpho": "kac",
  "kalaallisut": "kal",
  "greenlandic": "kal",
  "kamba": "kam",
  "kannada": "kan",
  "karen languages": "kar",
  "kashmiri": "kas",
  "kanuri": "kau",
  "kawi": "kaw",
  "kazakh": "kaz",
  "kabardian": "kbd",
  "khasi": "kha",
  "khoisan languages": "khi",
  "central khmer": "khm",
  "khotanese": "kho",
  "sakan": "kho",
  "kikuyu": "kik",
  "gikuyu": "kik",
  "kinyarwanda": "kin",
  "kirghiz": "kir",
  "kyrgyz": "kir",
  "kimbundu": "kmb",
  "konkani": "kok",
  "komi": "kom",
  "kongo": "kon",
  "korean": "kor",
  "kosraean": "kos",
  "kpelle": "kpe",
  "karachay-balkar": "krc",
  "karelian": "krl",
  "kru languages": "kro",
  "kurukh": "kru",
  "kuanyama": "kua",
  "kwanyama": "kua",
  "kumyk": "kum",
  "kurdish": "kur",
  "kutenai": "kut",
  "ladino": "lad",
  "lahnda": "lah",
  "lamba": "lam",
  "lao": "lao",
  "latin": "lat",
  "latvian": "lav",
  "lezghian": "lez",
  "limburgan": "lim",
  "limburger": "lim",
  "limburgish": "lim",
  "lingala": "lin",
  "lithuanian": "lit",
  "mongo": "lol",
  "lozi": "loz",
  "luxembourgish": "ltz",
  "letzeburgesch": "ltz",
  "luba-lulua": "lua",
  "luba-katanga": "lub",
  "ganda": "lug",
  "luiseno": "lui",
  "lunda": "lun",
  "luo (kenya and tanzania)": "luo",
  "lushai": "lus",
  "macedonian": "mac",
  "madurese": "mad",
  "magahi": "mag",
  "marshallese": "mah",
  "maithili": "mai",
  "makasar": "mak",
  "malayalam": "mal",
  "mandingo": "man",
  "maori": "mao",
  "austronesian languages": "map",
  "marathi": "mar",
  "masai": "mas",
  "malay": "may",
  "moksha": "mdf",
  "mandar": "mdr",
  "mende": "men",
  "irish, middle (900-1200)": "mga",
  "mi'kmaq": "mic",
  "micmac": "mic",
  "minangkabau": "min",
  "uncoded languages": "mis",
  "mon-khmer languages": "mkh",
  "malagasy": "mlg",
  "maltese": "mlt",
  "manchu": "mnc",
  "manipuri": "mni",
  "manobo languages": "mno",
  "mohawk": "moh",
  "mongolian": "mon",
  "mossi": "mos",
  "multiple languages": "mul",
  "munda languages": "mun",
  "creek": "mus",
  "mirandese": "mwl",
  "marwari": "mwr",
  "mayan languages": "myn",
  "erzya": "myv",
  "nahuatl languages": "nah",
  "north american indian languages": "nai",
  "neapolitan": "nap",
  "nauru": "nau",
  "navajo": "nav",
  "navaho": "nav",
  "ndebele, south": "nbl",
  "south ndebele": "nbl",
  "ndebele, north": "nde",
  "north ndebele": "nde",
  "ndonga": "ndo",
  "low german": "nds",
  "low saxon": "nds",
  "german, low": "nds",
  "saxon, low": "nds",
  "nepali": "nep",
  "nepal bhasa": "new",
  "newari": "new",
  "nias": "nia",
  "niger-kordofanian languages": "nic",
  "niuean": "niu",
  "norwegian nynorsk": "nno",
  "nynorsk, norwegian": "nno",
  "norwegian bokmål": "nob",
  "bokmål, norwegian": "nob",
  "nogai": "nog",
  "norse, old": "non",
  "norwegian": "nor",
  "n'ko": "nqo",
  "pedi": "nso",
  "sepedi": "nso",
  "northern sotho": "nso",
  "nubian languages": "nub",
  "classical newari": "nwc",
  "old newari": "nwc",
  "classical nepal bhasa": "nwc",
  "chichewa": "nya",
  "chewa": "nya",
  "nyanja": "nya",
  "nyamwezi": "nym",
  "nyankole": "nyn",
  "nyoro": "nyo",
  "nzima": "nzi",
  "occitan (post 1500)": "oci",
  "provençal": "oci",
  "ojibwa": "oji",
  "oriya": "ori",
  "oromo": "orm",
  "osage": "osa",
  "ossetian": "oss",
  "ossetic": "oss",
  "turkish, ottoman (1500-1928)": "ota",
  "otomian languages": "oto",
  "papuan languages": "paa",
  "pangasinan": "pag",
  "pahlavi": "pal",
  "pampanga": "pam",
  "kapampangan": "pam",
  "panjabi": "pan",
  "punjabi": "pan",
  "papiamento": "pap",
  "palauan": "pau",
  "persian, old (ca.600-400 b.c.)": "peo",
  "persian": "per",
  "philippine languages": "phi",
  "phoenician": "phn",
  "pali": "pli",
  "polish": "pol",
  "pohnpeian": "pon",
  "portuguese": "por",
  "prakrit languages": "pra",
  "provençal, old (to 1500)": "pro",
  "pushto": "pus",
  "pashto": "pus",
  "reserved for local use": "qaa-qtz",
  "quechua": "que",
  "rajasthani": "raj",
  "rapanui": "rap",
  "rarotongan": "rar",
  "cook islands maori": "rar",
  "romance languages": "roa",
  "romansh": "roh",
  "romany": "rom",
  "romanian": "rum",
  "moldavian": "rum",
  "moldovan": "rum",
  "rundi": "run",
  "aromanian": "rup",
  "arumanian": "rup",
  "macedo-romanian": "rup",
  "russian": "rus",
  "sandawe": "sad",
  "sango": "sag",
  "yakut": "sah",
  "south american indian (other)": "sai",
  "salishan languages": "sal",
  "samaritan aramaic": "sam",
  "sanskrit": "san",
  "sasak": "sas",
  "santali": "sat",
  "sicilian": "scn",
  "scots": "sco",
  "selkup": "sel",
  "semitic languages": "sem",
  "irish, old (to 900)": "sga",
  "sign languages": "sgn",
  "shan": "shn",
  "sidamo": "sid",
  "sinhala": "sin",
  "sinhalese": "sin",
  "siouan languages": "sio",
  "sino-tibetan languages": "sit",
  "slavic languages": "sla",
  "slovak": "slo",
  "slovenian": "slv",
  "southern sami": "sma",
  "northern sami": "sme",
  "sami languages": "smi",
  "lule sami": "smj",
  "inari sami": "smn",
  "samoan": "smo",
  "skolt sami": "sms",
  "shona": "sna",
  "sindhi": "snd",
  "soninke": "snk",
  "sogdian": "sog",
  "somali": "som",
  "songhai languages": "son",
  "sotho, southern": "sot",
  "spanish": "spa",
  "castilian": "spa",
  "sardinian": "srd",
  "sranan tongo": "srn",
  "serbian": "srp",
  "serer": "srr",
  "nilo-saharan languages": "ssa",
  "swati": "ssw",
  "sukuma": "suk",
  "sundanese": "sun",
  "susu": "sus",
  "sumerian": "sux",
  "swahili": "swa",
  "swedish": "swe",
  "classical syriac": "syc",
  "syriac": "syr",
  "tahitian": "tah",
  "tai languages": "tai",
  "tamil": "tam",
  "tatar": "tat",
  "telugu": "tel",
  "timne": "tem",
  "tereno": "ter",
  "tetum": "tet",
  "tajik": "tgk",
  "tagalog": "tgl",
  "thai": "tha",
  "tibetan": "tib",
  "tigre": "tig",
  "tigrinya": "tir",
  "tiv": "tiv",
  "tokelau": "tkl",
  "klingon": "tlh",
  "tlhingan-hol": "tlh",
  "tlingit": "tli",
  "tamashek": "tmh",
  "tonga (nyasa)": "tog",
  "tonga (tonga islands)": "ton",
  "tok pisin": "tpi",
  "tsimshian": "tsi",
  "tswana": "tsn",
  "tsonga": "tso",
  "turkmen": "tuk",
  "tumbuka": "tum",
  "tupi languages": "tup",
  "turkish": "tur",
  "altaic languages": "tut",
  "tuvalu": "tvl",
  "twi": "twi",
  "tuvinian": "tyv",
  "udmurt": "udm",
  "ugaritic": "uga",
  "uighur": "uig",
  "uyghur": "uig",
  "ukrainian": "ukr",
  "umbundu": "umb",
  "undetermined": "und",
  "": "und",
  "urdu": "urd",
  "uzbek": "uzb",
  "vai": "vai",
  "venda": "ven",
  "vietnamese": "vie",
  "volapük": "vol",
  "votic": "vot",
  "wakashan languages": "wak",
  "walamo": "wal",
  "waray": "war",
  "washo": "was",
  "welsh": "wel",
  "sorbian languages": "wen",
  "walloon": "wln",
  "wolof": "wol",
  "kalmyk": "xal",
  "oirat": "xal",
  "xhosa": "xho",
  "yao": "yao",
  "yapese": "yap",
  "yiddish": "yid",
  "yoruba": "yor",
  "yupik languages": "ypk",
  "zapotec": "zap",
  "blissymbols": "zbl",
  "blissymbolics": "zbl",
  "bliss": "zbl",
  "zenaga": "zen",
  "zhuang": "zha",
  "chuang": "zha",
  "zande languages": "znd",
  "zulu": "zul",
  "zuni": "zun",
  "no linguistic content": "zxx",
  "not applicable": "zxx",
  "zaza": "zza",
  "dimili": "zza",
  "dimli": "zza",
  "kirdki": "zza",
  "kirmanjki": "zza",
  "zazaki": "zza"
}
